// Jest Snapshot v1, https://goo.gl/fbAQLP

exports[`Art Card Properly Rendered 1`] = `
<div>
  <div
    className="card"
  >
    <button
      className="cardButton"
      onClick={[Function]}
    >
      <center>
        <div
          className="card-header"
        >
          <h4>
            <b>
              <span>
                <span
                  className=""
                >
                  The Last Day of Pompeii
                </span>
              </span>
            </b>
          </h4>
        </div>
      </center>
      <div
        className="card-body"
      >
        <center>
          <p>
            <img
              alt=""
              className="img-fluid"
              height="200"
              src=""
              width="200"
            />
          </p>
        </center>
        <dl
          class="dl-horizontal"
        >
          <dt>
             Artist 
          </dt>
          <dd>
            <span>
              <span
                className=""
              >
                Karl Bryullov
              </span>
            </span>
          </dd>
          <dt>
             Year
          </dt>
          <dd>
            <span>
              <span
                className=""
              >
                1833
              </span>
            </span>
          </dd>
          <dt>
             Current Location 
          </dt>
          <dd>
            <span>
              <span
                className=""
              >
                Russian Museum, Saint Petersburg, Russia
              </span>
            </span>
          </dd>
          <dt>
             Medium 
          </dt>
          <dd>
            <span>
              <span
                className=""
              >
                Oil Canvas
              </span>
            </span>
          </dd>
          <dt>
             Genre 
          </dt>
          <dd>
            <span>
              <span
                className=""
              >
                History Painting
              </span>
            </span>
          </dd>
        </dl>
        <br />
      </div>
    </button>
  </div>
</div>
`;

exports[`Art Card Properly Rendered with Image 1`] = `
<div>
  <div
    className="card"
  >
    <button
      className="cardButton"
      onClick={[Function]}
    >
      <center>
        <div
          className="card-header"
        >
          <h4>
            <b>
              <span>
                <span
                  className=""
                >
                  The Last Day of Pompeii
                </span>
              </span>
            </b>
          </h4>
        </div>
      </center>
      <div
        className="card-body"
      >
        <center>
          <p>
            <img
              alt=""
              className="img-fluid"
              height="200"
              src="https://uploads4.wikiart.org/images/karl-bryullov/the-last-day-of-pompeii-1833.jpg!Large.jpg"
              width="200"
            />
          </p>
        </center>
        <dl
          class="dl-horizontal"
        >
          <dt>
             Artist 
          </dt>
          <dd>
            <span>
              <span
                className=""
              >
                Karl Bryullov
              </span>
            </span>
          </dd>
          <dt>
             Year
          </dt>
          <dd>
            <span>
              <span
                className=""
              >
                1833
              </span>
            </span>
          </dd>
          <dt>
             Current Location 
          </dt>
          <dd>
            <span>
              <span
                className=""
              >
                Russian Museum, Saint Petersburg, Russia
              </span>
            </span>
          </dd>
          <dt>
             Medium 
          </dt>
          <dd>
            <span>
              <span
                className=""
              >
                Oil Canvas
              </span>
            </span>
          </dd>
          <dt>
             Genre 
          </dt>
          <dd>
            <span>
              <span
                className=""
              >
                History Painting
              </span>
            </span>
          </dd>
        </dl>
        <br />
      </div>
    </button>
  </div>
</div>
`;

exports[`Artist Card Properly Rendered 1`] = `
<div
  className="card"
>
  <button
    className="cardButton"
    onClick={[Function]}
  >
    <center>
      <div
        className="card-header"
      >
        <h4>
          <b>
            <span>
              <span
                className=""
              >
                Piet Mondrian
              </span>
            </span>
          </b>
        </h4>
      </div>
    </center>
    <div
      className="card-body"
    >
      <center>
        <p>
          <img
            alt="portrait"
            className="img-fluid"
            height="200"
            src=""
            width="200"
          />
        </p>
      </center>
      <dl
        class="dl-horizontal card-text"
      >
        <dt>
           Date of Birth
        </dt>
        <dd>
          <span>
            <span
              className=""
            >
              March 7, 1872
            </span>
          </span>
        </dd>
        <dt>
           Hometown
        </dt>
        <dd>
          <span>
            <span
              className=""
            >
              Amersfoort, Netherlands
            </span>
          </span>
        </dd>
        <dt>
           Nationality 
        </dt>
        <dd>
          <span>
            <span
              className=""
            >
              Dutch
            </span>
          </span>
        </dd>
        <dt>
           Gender 
        </dt>
        <dd>
          <span>
            <span
              className=""
            >
              Male
            </span>
          </span>
        </dd>
        <dt>
           Number of Artworks 
        </dt>
        <dd>
          <span>
            <span
              className=""
            >
              14
            </span>
          </span>
        </dd>
      </dl>
      <br />
    </div>
  </button>
</div>
`;

exports[`Artist Card Properly Rendered with Image 1`] = `
<div
  className="card"
>
  <button
    className="cardButton"
    onClick={[Function]}
  >
    <center>
      <div
        className="card-header"
      >
        <h4>
          <b>
            <span>
              <span
                className=""
              >
                Piet Mondrian
              </span>
            </span>
          </b>
        </h4>
      </div>
    </center>
    <div
      className="card-body"
    >
      <center>
        <p>
          <img
            alt="portrait"
            className="img-fluid"
            height="200"
            src="https://uploads5.wikiart.org/images/piet-mondrian.jpg!Portrait.jpg"
            width="200"
          />
        </p>
      </center>
      <dl
        class="dl-horizontal card-text"
      >
        <dt>
           Date of Birth
        </dt>
        <dd>
          <span>
            <span
              className=""
            >
              March 7, 1872
            </span>
          </span>
        </dd>
        <dt>
           Hometown
        </dt>
        <dd>
          <span>
            <span
              className=""
            >
              Amersfoort, Netherlands
            </span>
          </span>
        </dd>
        <dt>
           Nationality 
        </dt>
        <dd>
          <span>
            <span
              className=""
            >
              Dutch
            </span>
          </span>
        </dd>
        <dt>
           Gender 
        </dt>
        <dd>
          <span>
            <span
              className=""
            >
              Male
            </span>
          </span>
        </dd>
        <dt>
           Number of Artworks 
        </dt>
        <dd>
          <span>
            <span
              className=""
            >
              14
            </span>
          </span>
        </dd>
      </dl>
      <br />
    </div>
  </button>
</div>
`;

exports[`Museum Card Properly Rendered 1`] = `
<div>
  <div
    class="card"
  >
    <button
      className="cardButton"
      onClick={[Function]}
    >
      <center>
        <h4>
          <b>
            <span>
              <span
                className=""
              >
                Philadelphia Museum of Art, Philadelphia, PA, US
              </span>
            </span>
          </b>
        </h4>
      </center>
      <div
        class="card-body"
      >
        <center>
          <p>
            <img
              alt="museum"
              class="img-fluid"
              height="200"
              src=""
              width="200"
            />
          </p>
        </center>
        <dl
          class="dl-horizontal"
        >
          <dt>
             Location
          </dt>
          <dd>
            <span>
              <span
                className=""
              >
                2600 Benjamin Franklin Pkwy, Philadelphia, PA 19130, USA
              </span>
            </span>
          </dd>
          <dt>
             Website
          </dt>
          <dd>
             
            <a
              href="https://www.philamuseum.org/"
            >
              https://www.philamuseum.org/
            </a>
             
          </dd>
          <dt>
             Hours 
          </dt>
          <dd>
            <ul>
              <li>
                Monday:
                 
                10:00AM–5:00PM
                 
              </li>
              <li>
                Tuesday:
                 
                Closed
                 
              </li>
              <li>
                Wednesday:
                 
                Closed
                 
              </li>
              <li>
                Thursday:
                 
                10:00AM–5:00PM
                 
              </li>
              <li>
                Friday:
                 
                10:00AM–8:45PM
                 
              </li>
              <li>
                Saturday:
                 
                10:00AM–5:00PM
                 
              </li>
              <li>
                Sunday:
                 
                10:00AM–5:00PM
                 
              </li>
            </ul>
          </dd>
          <dt>
             Number of Artworks 
          </dt>
          <dd>
            <span>
              <span
                className=""
              >
                4
              </span>
            </span>
          </dd>
          <dt>
             Rating (per Google Reviews) 
          </dt>
          <dd>
            <span>
              <span
                className=""
              >
                4.8 / 5
              </span>
            </span>
             / 5
          </dd>
        </dl>
        <br />
      </div>
    </button>
  </div>
</div>
`;

exports[`Museum Card Properly Rendered with Image 1`] = `
<div>
  <div
    class="card"
  >
    <button
      className="cardButton"
      onClick={[Function]}
    >
      <center>
        <h4>
          <b>
            <span>
              <span
                className=""
              >
                Philadelphia Museum of Art, Philadelphia, PA, US
              </span>
            </span>
          </b>
        </h4>
      </center>
      <div
        class="card-body"
      >
        <center>
          <p>
            <img
              alt="museum"
              class="img-fluid"
              height="200"
              src="https://maps.googleapis.com/maps/api/place/photo?maxwidth=900&photo_reference=Aap_uEBfcAvC6dsQIpTMFjgp4GXuNAmeurICGV1dQiSCr_W1G8qLo1evtQpHVaMDyIv2s-rPVCEbJz8So3J9gVSOIU1dO2qify0rFX-IrSVMInRmJCn0cNyxMbcrIbMELpIQjGz7hQu9Rft46gAiwu-KpG5LOp243HKG8v3PEneeRnBX17EH&key=AIzaSyABfC8-FbUsQ9Fgjb2ZsiUMAim2brms0FE"
              width="200"
            />
          </p>
        </center>
        <dl
          class="dl-horizontal"
        >
          <dt>
             Location
          </dt>
          <dd>
            <span>
              <span
                className=""
              >
                2600 Benjamin Franklin Pkwy, Philadelphia, PA 19130, USA
              </span>
            </span>
          </dd>
          <dt>
             Website
          </dt>
          <dd>
             
            <a
              href="https://www.philamuseum.org/"
            >
              https://www.philamuseum.org/
            </a>
             
          </dd>
          <dt>
             Hours 
          </dt>
          <dd>
            <ul>
              <li>
                Monday:
                 
                10:00AM–5:00PM
                 
              </li>
              <li>
                Tuesday:
                 
                Closed
                 
              </li>
              <li>
                Wednesday:
                 
                Closed
                 
              </li>
              <li>
                Thursday:
                 
                10:00AM–5:00PM
                 
              </li>
              <li>
                Friday:
                 
                10:00AM–8:45PM
                 
              </li>
              <li>
                Saturday:
                 
                10:00AM–5:00PM
                 
              </li>
              <li>
                Sunday:
                 
                10:00AM–5:00PM
                 
              </li>
            </ul>
          </dd>
          <dt>
             Number of Artworks 
          </dt>
          <dd>
            <span>
              <span
                className=""
              >
                4
              </span>
            </span>
          </dd>
          <dt>
             Rating (per Google Reviews) 
          </dt>
          <dd>
            <span>
              <span
                className=""
              >
                4.8 / 5
              </span>
            </span>
             / 5
          </dd>
        </dl>
        <br />
      </div>
    </button>
  </div>
</div>
`;
